{
	"info": {
		"_postman_id": "4ddfd115-d045-4cf9-83fa-6cd224410a8e",
		"name": "Megadebt",
		"schema": "https://schema.getpostman.com/json/collection/v2.1.0/collection.json"
	},
	"item": [
		{
			"name": "Ping",
			"request": {
				"method": "GET",
				"header": [],
				"url": {
					"raw": "{{url}}/ping",
					"host": [
						"{{url}}"
					],
					"path": [
						"ping"
					]
				}
			},
			"response": []
		},
		{
			"name": "Get Receipts for User",
			"request": {
				"method": "GET",
				"header": [],
				"url": {
					"raw": "{{url}}/v1.0/m/user/receipts",
					"host": [
						"{{url}}"
					],
					"path": [
						"v1.0",
						"m",
						"user",
						"receipts"
					]
				}
			},
			"response": []
		},
		{
			"name": "Get Receipt By ID",
			"request": {
				"method": "GET",
				"header": [],
				"url": {
					"raw": "{{url}}/v1.0/m/user/receipts/1",
					"host": [
						"{{url}}"
					],
					"path": [
						"v1.0",
						"m",
						"user",
						"receipts",
						"1"
					]
				}
			},
			"response": []
		},
		{
			"name": "Get history receipts for User",
			"request": {
				"method": "GET",
				"header": [],
				"url": {
					"raw": "{{url}}/v1.0/m/user/receipts/history",
					"host": [
						"{{url}}"
					],
					"path": [
						"v1.0",
						"m",
						"user",
						"receipts",
						"history"
					]
				}
			},
			"response": []
		},
		{
			"name": "Validate Add Receipt Request",
			"request": {
				"method": "POST",
				"header": [],
				"body": {
					"mode": "raw",
					"raw": "{\n\t\"name\": \"Хахаха\",\n\t\"date\": 1111,\n\t\"description\": \"описание\",\n\t\"items\": [\n\t\t{\n\t\t\t\"name\": \"Пивасик\",\n\t\t\t\"quantity\": 5,\n\t\t\t\"price\": 65,\n\t\t\t\"participants\": [\"some-user\"]\n\t\t}\n\t],\n\t\"participants\": [\"some-user\"]\n}",
					"options": {
						"raw": {
							"language": "json"
						}
					}
				},
				"url": {
					"raw": "{{url}}/v1.0/m/user/receipts/add/validation",
					"host": [
						"{{url}}"
					],
					"path": [
						"v1.0",
						"m",
						"user",
						"receipts",
						"add",
						"validation"
					]
				}
			},
			"response": []
		},
		{
			"name": "Add Receipt",
			"request": {
				"method": "POST",
				"header": [
					{
						"key": "",
						"value": "",
						"type": "text",
						"disabled": true
					}
				],
				"body": {
					"mode": "raw",
					"raw": "{\n\t\"name\": \"Событие с твоим долгом\",\n\t\"date\": 11122,\n\t\"description\": \"Тут должно быть какое-то описание\",\n\t\"items\": [\n\t\t{\n\t\t\t\"name\": \"Пицца Маргарита\",\n\t\t\t\"quantity\": 5,\n\t\t\t\"price\": 120,\n\t\t\t\"participants\": [\"7NG4RxAvFZScIaTAKtVK9mJHDYh2\"]\n\t\t}\n\t],\n\t\"participants\": [\"7NG4RxAvFZScIaTAKtVK9mJHDYh2\"]\n}",
					"options": {
						"raw": {
							"language": "json"
						}
					}
				},
				"url": {
					"raw": "{{url}}/v1.0/m/user/receipts/add",
					"host": [
						"{{url}}"
					],
					"path": [
						"v1.0",
						"m",
						"user",
						"receipts",
						"add"
					]
				}
			},
			"response": []
		},
		{
			"name": "Close Receipt",
			"request": {
				"method": "POST",
				"header": [],
				"url": {
					"raw": "{{url}}/v1.0/m/user/receipts/111/close",
					"host": [
						"{{url}}"
					],
					"path": [
						"v1.0",
						"m",
						"user",
						"receipts",
						"111",
						"close"
					]
				}
			},
			"response": []
		},
		{
			"name": "Change Debt State",
			"request": {
				"method": "PUT",
				"header": [],
				"url": {
					"raw": "{{url}}/v1.0/m/user/debts/111/state",
					"host": [
						"{{url}}"
					],
					"path": [
						"v1.0",
						"m",
						"user",
						"debts",
						"111",
						"state"
					]
				}
			},
			"response": []
		},
		{
			"name": "Get Friends for User",
			"request": {
				"method": "GET",
				"header": [],
				"url": {
					"raw": "{{url}}/v1.0/m/social/friends",
					"host": [
						"{{url}}"
					],
					"path": [
						"v1.0",
						"m",
						"social",
						"friends"
					]
				}
			},
			"response": []
		},
		{
			"name": "Add Friend to User",
			"request": {
				"method": "POST",
				"header": [],
				"body": {
					"mode": "raw",
					"raw": "{\n\t\"id\": \"hehe\"\n}",
					"options": {
						"raw": {
							"language": "json"
						}
					}
				},
				"url": {
					"raw": "{{url}}/v1.0/m/social/friends/add",
					"host": [
						"{{url}}"
					],
					"path": [
						"v1.0",
						"m",
						"social",
						"friends",
						"add"
					]
				}
			},
			"response": []
		},
		{
			"name": "Get Friends Requests for User",
			"request": {
				"method": "GET",
				"header": [],
				"url": {
					"raw": "{{url}}/v1.0/m/social/friends/requests",
					"host": [
						"{{url}}"
					],
					"path": [
						"v1.0",
						"m",
						"social",
						"friends",
						"requests"
					]
				}
			},
			"response": []
		},
		{
			"name": "Approve Friend Request",
			"request": {
				"method": "POST",
				"header": [],
				"url": {
					"raw": "{{url}}/v1.0/m/social/friends/requests/111/approve",
					"host": [
						"{{url}}"
					],
					"path": [
						"v1.0",
						"m",
						"social",
						"friends",
						"requests",
						"111",
						"approve"
					]
				}
			},
			"response": []
		},
		{
			"name": "Decline Friend Request",
			"request": {
				"method": "POST",
				"header": [],
				"url": {
					"raw": "{{url}}/v1.0/m/social/friends/requests/111/decline",
					"host": [
						"{{url}}"
					],
					"path": [
						"v1.0",
						"m",
						"social",
						"friends",
						"requests",
						"111",
						"decline"
					]
				}
			},
			"response": []
		},
		{
			"name": "User Info for User",
			"request": {
				"method": "GET",
				"header": [],
				"url": {
					"raw": "{{url}}/v1.0/m/social/info",
					"host": [
						"{{url}}"
					],
					"path": [
						"v1.0",
						"m",
						"social",
						"info"
					]
				}
			},
			"response": []
		},
		{
			"name": "User Info by Login",
			"request": {
				"method": "POST",
				"header": [],
				"body": {
					"mode": "raw",
					"raw": "{\n\t\"login\": \"some-login\"\n}",
					"options": {
						"raw": {
							"language": "json"
						}
					}
				},
				"url": {
					"raw": "{{url}}/v1.0/m/social/info/login",
					"host": [
						"{{url}}"
					],
					"path": [
						"v1.0",
						"m",
						"social",
						"info",
						"login"
					]
				}
			},
			"response": []
		},
		{
			"name": "Register User",
			"request": {
				"method": "POST",
				"header": [],
				"body": {
					"mode": "raw",
					"raw": "{\n\t\"login\": \"kek111&\"\n}",
					"options": {
						"raw": {
							"language": "json"
						}
					}
				},
				"url": {
					"raw": "{{url}}/v1.0/m/user/register",
					"host": [
						"{{url}}"
					],
					"path": [
						"v1.0",
						"m",
						"user",
						"register"
					]
				}
			},
			"response": []
		},
		{
			"name": "Register User Validation",
			"request": {
				"method": "POST",
				"header": [],
				"body": {
					"mode": "raw",
					"raw": "{\n\t\"login\": \"kek111&\"\n}",
					"options": {
						"raw": {
							"language": "json"
						}
					}
				},
				"url": {
					"raw": "{{url}}/v1.0/m/user/register/validation",
					"host": [
						"{{url}}"
					],
					"path": [
						"v1.0",
						"m",
						"user",
						"register",
						"validation"
					]
				}
			},
			"response": []
		},
		{
			"name": "User Info Edit",
			"request": {
				"method": "POST",
				"header": [],
				"body": {
					"mode": "raw",
					"raw": "{\n\t\"login\": \"felicis31\",\n\t\"display_name\": \"hehehhehe\"\n}",
					"options": {
						"raw": {
							"language": "json"
						}
					}
				},
				"url": {
					"raw": "{{url}}/v1.0/m/social/info/edit",
					"host": [
						"{{url}}"
					],
					"path": [
						"v1.0",
						"m",
						"social",
						"info",
						"edit"
					]
				}
			},
			"response": []
		},
		{
			"name": "User info By ID",
			"request": {
				"method": "GET",
				"header": [],
				"url": {
					"raw": "{{url}}/v1.0/m/social/info/about/user-1",
					"host": [
						"{{url}}"
					],
					"path": [
						"v1.0",
						"m",
						"social",
						"info",
						"about",
						"user-1"
					]
				}
			},
			"response": []
		}
	],
	"protocolProfileBehavior": {}
}